0.0532791787959 1
0.0532791787959 2
0.0532791787959 3
0.0532302788829 4
0.0532302788829 5
0.0532302788829 6
0.0529501183999 7
0.0529501183999 8
0.0529396087185 9
0.0529396087185 10
0.0529396087185 11
0.0524062165089 12
0.0524062165089 13
0.0516871420985 14
0.0516871420985 15
0.0512738660476 16
0.0512738660476 17
0.0504830782758 18
0.0504830782758 19
0.0504830782758 20
0.0497680068797 21
0.0491797717546 22
0.0491797717546 23
0.0491797717546 24
0.0491797717546 25
0.0488662270929 26
0.0488662270929 27
0.0485839033635 28
0.0478011825352 29
0.0478011825352 30
0.0474584678538 31
0.0474584678538 32
0.0469725399791 33
0.0462877573909 34
0.0462877573909 35
0.0462877573909 36
0.0462877573909 37
0.0462877573909 38
0.0462877573909 39
0.0456277238404 40
0.0456277238404 41
0.0456277238404 42
0.0456277238404 43
0.0456277238404 44
0.0456277238404 45
0.0449212639471 46
0.0449212639471 47
0.0449212639471 48
0.0442606353602 49
0.0436690122061 50
0.0436690122061 51
0.043025128121 52
0.043025128121 53
0.0427304493166 54
0.0427304493166 55
0.0427304493166 56
0.0427304493166 57
0.0427304493166 58
0.0427304493166 59
0.0421665110043 60
0.0419315492209 61
0.0419315492209 62
0.0419315492209 63
0.0412258338364 64
0.040627736333 65
0.0399305694197 66
0.0391952916815 67
0.0391952916815 68
0.0391952916815 69
0.0391952916815 70
0.0391952916815 71
0.0391952916815 72
0.0391952916815 73
0.0391952916815 74
0.0384676677186 75
0.0384676677186 76
0.0378050599415 77
0.0378050599415 78
0.037125990725 79
0.037125990725 80
0.0364653537892 81
0.0364653537892 82
0.0364653537892 83
0.0364653537892 84
0.0364653537892 85
0.0364168912251 86
0.0356281280002 87
0.0356281280002 88
0.0356281280002 89
0.0349220410251 90
0.0342577487466 91
0.0342577487466 92
0.0342577487466 93
0.0335993844253 94
0.0335993844253 95
0.0335993844253 96
0.0329368355954 97
0.0322626221316 98
0.0322626221316 99
0.0316054358524 100
0.0309324167752 101
0.0309324167752 102
0.0309324167752 103
0.0309324167752 104
0.0309324167752 105
0.0308142183012 106
0.0308142183012 107
0.0308142183012 108
0.030015717805 109
0.02924486443 110
0.02924486443 111
0.02856413187 112
0.0278726659788 113
0.0278726659788 114
0.0278726659788 115
0.0271148961675 116
0.0271148961675 117
0.0264397093143 118
0.025738742695 119
0.025738742695 120
0.025738742695 121
0.025738742695 122
0.025738742695 123
0.025738742695 124
0.0250490368105 125
0.0250490368105 126
0.0250490368105 127
0.0242850978338 128
0.0242850978338 129
0.0236038385811 130
0.0236038385811 131
0.0229209558895 132
0.0229209558895 133
0.0222175934976 134
0.021462352726 135
0.0207409461681 136
0.0200218133243 137
0.0200218133243 138
0.0193040147707 139
0.0193040147707 140
0.0185997995362 141
0.0178864913088 142
0.0176805972095 143
0.0176805972095 144
0.0169507506127 145
0.0169507506127 146
0.0162424981449 147
0.0162424981449 148
0.0155129958347 149
0.0155129958347 150
0.0148471853181 151
0.0140781524972 152
0.0133614301441 153
0.0133614301441 154
0.0133614301441 155
0.0126753514776 156
0.0126285989241 157
0.0126285989241 158
0.0126285989241 159
0.0126285989241 160
0.0126285989241 161
0.0119121258536 162
0.0111597467052 163
0.0104213820259 164
0.0104213820259 165
0.00967929737004 166
0.00893320874905 167
0.00893320874905 168
0.00893320874905 169
0.008215491972 170
0.00816812306089 171
0.0074834224738 172
0.0074834224738 173
0.00670843652236 174
0.00670843652236 175
0.00670843652236 176
0.005999579775 177
0.005999579775 178
0.005999579775 179
0.005999579775 180
0.005999579775 181
0.005999579775 182
0.005999579775 183
0.005999579775 184
0.005999579775 185
0.005999579775 186
0.005999579775 187
0.005999579775 188
0.005999579775 189
0.00522831086599 190
0.00522831086599 191
0.00522831086599 192
0.00447419654408 193
0.00447419654408 194
0.00447419654408 195
0.00447419654408 196
0.00447419654408 197
0.00447419654408 198
0.00447419654408 199
0.00374256513666 200
0.00372597819384 201
0.00372597819384 202
0.00372597819384 203
0.00300849688144 204
0.00300849688144 205
0.00300849688144 206
0.00230641223699 207
0.00229512137791 208
0.00156155544212 209
0.001542159319 210
0.001542159319 211
0.000783555506024 212
0.000783555506024 213
0.000783555506024 214
4.72557223624e-05 215
4.72557223624e-05 216
2.75607919178e-05 217
2.75607919178e-05 218
2.75607919178e-05 219
8.00966676473e-06 220
8.00966676473e-06 221
8.00966676473e-06 222
8.00966676473e-06 223
8.00966676473e-06 224
8.00966676473e-06 225
8.00966676473e-06 226
8.00966676473e-06 227
8.00966676473e-06 228
8.00966676473e-06 229
8.00966676473e-06 230
8.00966676473e-06 231
8.00966676473e-06 232
8.00966676473e-06 233
8.00966676473e-06 234
8.00966676473e-06 235
8.00966676473e-06 236
8.00966676473e-06 237
8.00966676473e-06 238
8.00966676473e-06 239
8.00966676473e-06 240
8.00966676473e-06 241
8.00966676473e-06 242
8.00966676473e-06 243
8.00966676473e-06 244
8.00966676473e-06 245
8.00966676473e-06 246
8.00966676473e-06 247
8.00966676473e-06 248
8.00966676473e-06 249
8.00966676473e-06 250
8.00966676473e-06 251
8.00966676473e-06 252
8.00966676473e-06 253
8.00966676473e-06 254
8.00966676473e-06 255
8.00966676473e-06 256
8.00966676473e-06 257
8.00966676473e-06 258
8.00966676473e-06 259
8.00966676473e-06 260
8.00966676473e-06 261
8.00966676473e-06 262
8.00966676473e-06 263
8.00966676473e-06 264
8.00966676473e-06 265
8.00966676473e-06 266
8.00966676473e-06 267
8.00966676473e-06 268
8.00966676473e-06 269
8.00966676473e-06 270
8.00966676473e-06 271
8.00966676473e-06 272
8.00966676473e-06 273
8.00966676473e-06 274
8.00966676473e-06 275
8.00966676473e-06 276
8.00966676473e-06 277
8.00966676473e-06 278
8.00966676473e-06 279
8.00966676473e-06 280
8.00966676473e-06 281
8.00966676473e-06 282
8.00966676473e-06 283
8.00966676473e-06 284
8.00966676473e-06 285
8.00966676473e-06 286
8.00966676473e-06 287
8.00966676473e-06 288
8.00966676473e-06 289
8.00966676473e-06 290
8.00966676473e-06 291
8.00966676473e-06 292
8.00966676473e-06 293
8.00966676473e-06 294
8.00966676473e-06 295
8.00966676473e-06 296
8.00966676473e-06 297
8.00966676473e-06 298
8.00966676473e-06 299
8.00966676473e-06 300
8.00966676473e-06 301
8.00966676473e-06 302
8.00966676473e-06 303
8.00966676473e-06 304
8.00966676473e-06 305
8.00966676473e-06 306
8.00966676473e-06 307
8.00966676473e-06 308
8.00966676473e-06 309
8.00966676473e-06 310
8.00966676473e-06 311
8.00966676473e-06 312
8.00966676473e-06 313
8.00966676473e-06 314
8.00966676473e-06 315
8.00966676473e-06 316
8.00966676473e-06 317
8.00966676473e-06 318
8.00966676473e-06 319
8.00966676473e-06 320
8.00966676473e-06 321
8.00966676473e-06 322
8.00966676473e-06 323
8.00966676473e-06 324
8.00966676473e-06 325
8.00966676473e-06 326
8.00966676473e-06 327
8.00966676473e-06 328
8.00966676473e-06 329
8.00966676473e-06 330
8.00966676473e-06 331
8.00966676473e-06 332
8.00966676473e-06 333
8.00966676473e-06 334
8.00966676473e-06 335
8.00966676473e-06 336
8.00966676473e-06 337
8.00966676473e-06 338
8.00966676473e-06 339
8.00966676473e-06 340
8.00966676473e-06 341
8.00966676473e-06 342
8.00966676473e-06 343
8.00966676473e-06 344
8.00966676473e-06 345
8.00966676473e-06 346
8.00966676473e-06 347
8.00966676473e-06 348
8.00966676473e-06 349
8.00966676473e-06 350
8.00966676473e-06 351
8.00966676473e-06 352
8.00966676473e-06 353
8.00966676473e-06 354
8.00966676473e-06 355
8.00966676473e-06 356
8.00966676473e-06 357
8.00966676473e-06 358
8.00966676473e-06 359
8.00966676473e-06 360
8.00966676473e-06 361
8.00966676473e-06 362
8.00966676473e-06 363
8.00966676473e-06 364
8.00966676473e-06 365
8.00966676473e-06 366
8.00966676473e-06 367
8.00966676473e-06 368
8.00966676473e-06 369
8.00966676473e-06 370
8.00966676473e-06 371
8.00966676473e-06 372
8.00966676473e-06 373
8.00966676473e-06 374
8.00966676473e-06 375
8.00966676473e-06 376
8.00966676473e-06 377
8.00966676473e-06 378
8.00966676473e-06 379
8.00966676473e-06 380
8.00966676473e-06 381
8.00966676473e-06 382
8.00966676473e-06 383
8.00966676473e-06 384
8.00966676473e-06 385
8.00966676473e-06 386
8.00966676473e-06 387
8.00966676473e-06 388
8.00966676473e-06 389
8.00966676473e-06 390
8.00966676473e-06 391
8.00966676473e-06 392
8.00966676473e-06 393
8.00966676473e-06 394
8.00966676473e-06 395
8.00966676473e-06 396
8.00966676473e-06 397
8.00966676473e-06 398
8.00966676473e-06 399
8.00966676473e-06 400
8.00966676473e-06 401
8.00966676473e-06 402
8.00966676473e-06 403
8.00966676473e-06 404
8.00966676473e-06 405
8.00966676473e-06 406
8.00966676473e-06 407
8.00966676473e-06 408
8.00966676473e-06 409
8.00966676473e-06 410
8.00966676473e-06 411
8.00966676473e-06 412
8.00966676473e-06 413
8.00966676473e-06 414
8.00966676473e-06 415
8.00966676473e-06 416
8.00966676473e-06 417
8.00966676473e-06 418
8.00966676473e-06 419
8.00966676473e-06 420
8.00966676473e-06 421
8.00966676473e-06 422
8.00966676473e-06 423
8.00966676473e-06 424
8.00966676473e-06 425
8.00966676473e-06 426
8.00966676473e-06 427
8.00966676473e-06 428
8.00966676473e-06 429
8.00966676473e-06 430
8.00966676473e-06 431
8.00966676473e-06 432
8.00966676473e-06 433
8.00966676473e-06 434
8.00966676473e-06 435
8.00966676473e-06 436
8.00966676473e-06 437
8.00966676473e-06 438
8.00966676473e-06 439
8.00966676473e-06 440
8.00966676473e-06 441
8.00966676473e-06 442
8.00966676473e-06 443
8.00966676473e-06 444
8.00966676473e-06 445
8.00966676473e-06 446
8.00966676473e-06 447
8.00966676473e-06 448
8.00966676473e-06 449
8.00966676473e-06 450
8.00966676473e-06 451
8.00966676473e-06 452
8.00966676473e-06 453