131 89
131 81
181 182
1 96
1 110
1 87
1 100
1 92
1 25
1 174
1 161
1 52
1 151
1 70
1 58
1 127
111 89
178 32
178 165
178 123
200 34
14 182
108 101
108 173
108 79
63 18
63 198
137 96
137 78
137 100
137 179
164 99
164 173
164 79
88 87
88 183
151 1
151 127
127 87
127 150
127 52
127 1
127 151
30 54
30 8
30 104
30 160
124 161
124 160
124 142
155 38
64 22
64 139
64 123
64 157
64 66
38 155
125 204
87 156
87 96
87 110
87 92
87 88
87 25
87 1
87 127
87 183
87 179
25 77
25 87
25 43
25 60
25 92
25 1
25 147
198 63
186 149
2 52
2 100
2 134
2 190
147 25
29 55
29 51
93 27
36 23
36 97
36 167
174 1
196 179
196 134
77 43
77 25
22 64
22 76
22 55
22 123
22 15
22 189
139 64
139 105
139 123
139 47
139 193
139 189
57 133
52 1
52 127
52 2
52 190
170 153
97 36
121 109
122 17
149 165
149 58
149 186
193 139
86 55
191 47
191 189
19 9
176 74
34 187
34 200
187 165
187 75
187 91
187 34
8 104
8 160
8 30
205 9
71 56
31 114
31 185
142 109
142 160
142 124
179 96
179 87
179 137
179 196
79 108
79 99
79 164
79 173
79 47
91 187
182 14
182 181
53 136
53 83
66 64
66 55
66 157
66 82
58 1
58 149
183 87
183 88
183 190
59 21
59 104
59 65
180 138
201 102
201 47
23 36
110 96
110 87
110 92
110 1
110 134
100 96
100 137
100 150
100 1
100 2
185 112
185 114
185 138
185 31
185 132
173 108
173 99
173 164
173 79
92 110
92 87
92 25
92 1
60 43
60 25
56 71
56 129
82 66
44 74
44 136
44 11
133 57
104 8
104 160
104 65
104 30
104 59
18 63
18 195
18 158
18 129
40 16
15 76
15 22
15 55
15 189
47 102
47 74
47 201
47 105
47 139
47 153
47 191
47 79
47 189
61 13
61 55
61 51
144 115
202 136
158 18
158 70
158 195
158 129
17 122
81 131
189 102
189 22
189 139
189 123
189 15
189 47
189 191
114 138
114 185
114 31
76 22
76 15
11 74
11 44
148 194
90 117
190 161
190 52
190 2
190 183
33 140
13 153
13 61
102 201
102 21
102 47
102 189
78 137
146 192
138 114
138 185
138 180
21 140
21 102
21 59
165 199
165 149
165 178
165 187
132 185
132 150
166 160
141 103
157 64
157 55
157 123
157 66
55 22
55 123
55 157
55 66
55 15
55 61
55 86
55 29
55 51
65 104
65 59
167 36
74 136
74 11
74 47
74 44
74 176
68 27
98 192
16 140
16 40
5 204
54 9
54 115
54 30
105 139
105 47
150 96
150 100
150 127
150 132
160 166
160 194
160 8
160 140
160 104
160 142
160 30
160 124
27 68
27 93
117 90
195 18
195 70
195 158
134 110
134 2
134 196
83 53
83 136
51 55
51 61
51 29
129 18
129 56
129 158
156 87
140 194
140 33
140 21
140 160
140 16
32 178
161 1
161 124
161 190
109 121
109 142
192 146
192 98
103 141
70 1
70 195
70 158
89 131
89 111
199 165
112 185
194 140
194 160
194 148
9 54
9 205
9 115
9 19
96 110
96 87
96 137
96 150
96 100
96 1
96 179
43 77
43 60
43 25
204 125
204 75
204 5
123 64
123 22
123 139
123 55
123 157
123 178
123 189
99 164
99 173
99 79
101 108
75 204
75 187
136 53
136 74
136 202
136 83
136 44
115 54
115 9
115 144
153 13
153 170
153 47